data/A_330/Newfile1.csv

X,CH1,Start,Increment,
Sequence,Volt,5.312000e-05,5.000000e-10,
0,-9.531250e-01,
1,-9.531250e-01,
2,-9.531250e-01,
3,-9.375000e-01,
4,-9.531250e-01,
5,-9.375000e-01,
6,-9.531250e-01,
7,-9.531250e-01,
8,-9.531250e-01,
9,-9.531250e-01,
10,-9.531250e-01,
11,-9.531250e-01,
12,-9.531250e-01,
13,-9.531250e-01,
14,-9.687500e-01,
15,-9.531250e-01,
16,-9.531250e-01,
17,-9.531250e-01,
18,-9.531250e-01,
19,-9.531250e-01,
20,-9.531250e-01,
21,-9.531250e-01,
22,-9.531250e-01,
23,-9.531250e-01,
24,-9.687500e-01,
25,-9.531250e-01,
26,-9.687500e-01,
27,-9.531250e-01,
28,-9.687500e-01,
29,-9.531250e-01,
30,-9.687500e-01,
31,-9.687500e-01,
32,-9.687500e-01,
33,-9.687500e-01,
34,-9.687500e-01,
35,-9.687500e-01,
36,-9.687500e-01,
37,-9.687500e-01,
38,-9.843750e-01,
39,-9.687500e-01,
40,-9.687500e-01,
41,-9.687500e-01,
42,-9.687500e-01,
43,-9.687500e-01,
44,-9.687500e-01,
45,-9.687500e-01,
46,-9.687500e-01,
47,-9.687500e-01,
48,-9.687500e-01,
49,-9.687500e-01,
50,-9.843750e-01,
51,-9.843750e-01,
52,-9.843750e-01,
53,-9.687500e-01,
54,-9.687500e-01,
55,-9.687500e-01,
56,-9.843750e-01,
57,-9.843750e-01,
58,-1.000000e+00,
59,-9.843750e-01,
60,-9.843750e-01,
61,-9.843750e-01,
62,-1.000000e+00,
63,-1.000000e+00,
64,-9.843750e-01,
65,-9.687500e-01,
66,-9.843750e-01,
67,-1.000000e+00,
68,-1.000000e+00,
69,-9.843750e-01,
70,-1.000000e+00,
71,-1.000000e+00,
72,-9.843750e-01,
73,-9.843750e-01,
74,-1.000000e+00,
75,-9.843750e-01,
76,-9.843750e-01,
77,-9.843750e-01,
78,-1.000000e+00,
79,-1.000000e+00,
80,-1.000000e+00,
81,-9.843750e-01,
82,-1.000000e+00,
83,-1.000000e+00,
84,-1.000000e+00,
85,-9.843750e-01,
86,-9.843750e-01,
87,-9.843750e-01,
88,-1.000000e+00,
89,-1.000000e+00,
90,-1.000000e+00,
91,-1.000000e+00,
92,-1.000000e+00,
93,-1.000000e+00,
94,-1.015625e+00,
95,-1.000000e+00,
96,-1.000000e+00,
97,-1.000000e+00,
98,-1.000000e+00,
99,-1.000000e+00,
100,-1.000000e+00,
101,-1.000000e+00,
102,-1.015625e+00,
103,-1.015625e+00,
104,-1.015625e+00,
105,-1.000000e+00,
106,-1.015625e+00,
107,-1.015625e+00,
108,-1.000000e+00,
109,-1.015625e+00,
110,-1.015625e+00,
111,-1.015625e+00,
112,-1.015625e+00,
113,-1.000000e+00,
114,-1.015625e+00,
115,-1.015625e+00,
116,-1.015625e+00,
117,-1.015625e+00,
118,-1.015625e+00,
119,-1.015625e+00,
120,-1.015625e+00,
121,-1.015625e+00,
122,-1.015625e+00,
123,-1.015625e+00,
124,-1.015625e+00,
125,-1.015625e+00,
126,-1.015625e+00,
127,-1.015625e+00,
128,-1.015625e+00,
129,-1.015625e+00,
130,-1.015625e+00,
131,-1.015625e+00,
132,-1.015625e+00,
133,-1.015625e+00,
134,-1.031250e+00,
135,-1.015625e+00,
136,-1.015625e+00,
137,-1.015625e+00,
138,-1.031250e+00,
139,-1.031250e+00,
140,-1.015625e+00,
141,-1.015625e+00,
142,-1.031250e+00,
143,-1.031250e+00,
144,-1.031250e+00,
145,-1.031250e+00,
146,-1.031250e+00,
147,-1.031250e+00,
148,-1.015625e+00,
149,-1.015625e+00,
150,-1.031250e+00,
151,-1.031250e+00,
152,-1.031250e+00,
153,-1.031250e+00,
154,-1.046875e+00,
155,-1.031250e+00,
156,-1.031250e+00,
157,-1.031250e+00,
158,-1.031250e+00,
159,-1.031250e+00,
160,-1.046875e+00,
161,-1.031250e+00,
162,-1.031250e+00,
163,-1.031250e+00,
164,-1.031250e+00,
165,-1.031250e+00,
166,-1.031250e+00,
167,-1.031250e+00,
168,-1.031250e+00,
169,-1.031250e+00,
170,-1.046875e+00,
171,-1.046875e+00,
172,-1.046875e+00,
173,-1.046875e+00,
174,-1.046875e+00,
175,-1.031250e+00,
176,-1.046875e+00,
177,-1.031250e+00,
178,-1.046875e+00,
179,-1.031250e+00,
180,-1.046875e+00,
181,-1.046875e+00,
182,-1.046875e+00,
183,-1.046875e+00,
184,-1.046875e+00,
185,-1.031250e+00,
186,-1.046875e+00,
187,-1.046875e+00,
188,-1.046875e+00,
189,-1.031250e+00,
190,-1.046875e+00,
191,-1.046875e+00,
192,-1.046875e+00,
193,-1.046875e+00,
194,-1.062500e+00,
195,-1.046875e+00,
196,-1.046875e+00,
197,-1.031250e+00,
198,-1.062500e+00,
199,-1.046875e+00,
200,-1.046875e+00,
201,-1.046875e+00,
202,-1.046875e+00,
203,-1.046875e+00,
204,-1.062500e+00,
205,-1.046875e+00,
206,-1.046875e+00,
207,-1.046875e+00,
208,-1.062500e+00,
209,-1.062500e+00,
210,-1.062500e+00,
211,-1.062500e+00,
212,-1.062500e+00,
213,-1.046875e+00,
214,-1.062500e+00,
215,-1.062500e+00,
216,-1.062500e+00,
217,-1.062500e+00,
218,-1.062500e+00,
219,-1.046875e+00,
220,-1.062500e+00,
221,-1.062500e+00,
222,-1.062500e+00,
223,-1.046875e+00,
224,-1.046875e+00,
225,-1.046875e+00,
226,-1.062500e+00,
227,-1.046875e+00,
228,-1.062500e+00,
229,-1.062500e+00,
230,-1.062500e+00,
231,-1.062500e+00,
232,-1.062500e+00,
233,-1.062500e+00,
234,-1.062500e+00,
235,-1.062500e+00,
236,-1.062500e+00,
237,-1.062500e+00,
238,-1.062500e+00,
239,-1.078125e+00,
240,-1.078125e+00,
241,-1.062500e+00,
242,-1.062500e+00,
243,-1.062500e+00,
244,-1.078125e+00,
245,-1.062500e+00,
246,-1.062500e+00,
247,-1.062500e+00,
248,-1.078125e+00,
249,-1.062500e+00,
250,-1.062500e+00,
251,-1.062500e+00,
252,-1.062500e+00,
253,-1.062500e+00,
254,-1.078125e+00,
255,-1.078125e+00,
256,-1.078125e+00,
257,-1.078125e+00,
258,-1.078125e+00,
259,-1.078125e+00,
260,-1.078125e+00,
261,-1.062500e+00,
262,-1.078125e+00,
263,-1.078125e+00,
264,-1.078125e+00,
265,-1.078125e+00,
266,-1.078125e+00,
267,-1.078125e+00,
268,-1.078125e+00,
269,-1.062500e+00,
270,-1.078125e+00,
271,-1.078125e+00,
272,-1.078125e+00,
273,-1.078125e+00,
274,-1.078125e+00,
275,-1.078125e+00,
276,-1.093750e+00,
277,-1.078125e+00,
278,-1.093750e+00,
279,-1.078125e+00,
280,-1.078125e+00,
281,-1.062500e+00,
282,-1.078125e+00,
283,-1.078125e+00,
284,-1.093750e+00,
285,-1.078125e+00,
286,-1.093750e+00,
287,-1.078125e+00,
288,-1.078125e+00,
289,-1.078125e+00,
290,-1.078125e+00,
291,-1.093750e+00,
292,-1.078125e+00,
293,-1.078125e+00,
294,-1.093750e+00,
295,-1.093750e+00,
296,-1.093750e+00,
297,-1.093750e+00,
298,-1.093750e+00,
299,-1.078125e+00,
300,-1.078125e+00,
301,-1.078125e+00,
302,-1.093750e+00,
303,-1.093750e+00,
304,-1.093750e+00,
305,-1.093750e+00,
306,-1.093750e+00,
307,-1.093750e+00,
308,-1.093750e+00,
309,-1.078125e+00,
310,-1.078125e+00,
311,-1.093750e+00,
312,-1.093750e+00,
313,-1.093750e+00,
314,-1.093750e+00,
315,-1.093750e+00,
316,-1.093750e+00,
317,-1.093750e+00,
318,-1.109375e+00,
319,-1.093750e+00,
320,-1.093750e+00,
321,-1.093750e+00,
322,-1.093750e+00,
323,-1.093750e+00,
324,-1.093750e+00,
325,-1.093750e+00,
326,-1.093750e+00,
327,-1.093750e+00,
328,-1.093750e+00,
329,-1.093750e+00,
330,-1.093750e+00,
331,-1.093750e+00,
332,-1.109375e+00,
333,-1.093750e+00,
334,-1.093750e+00,
335,-1.093750e+00,
336,-1.109375e+00,
337,-1.109375e+00,
338,-1.109375e+00,
339,-1.093750e+00,
340,-1.093750e+00,
341,-1.093750e+00,
342,-1.109375e+00,
343,-1.093750e+00,
344,-1.093750e+00,
345,-1.109375e+00,
346,-1.109375e+00,
347,-1.093750e+00,
348,-1.093750e+00,
349,-1.093750e+00,
350,-1.093750e+00,
351,-1.093750e+00,
352,-1.109375e+00,
353,-1.093750e+00,
354,-1.109375e+00,
355,-1.093750e+00,
356,-1.109375e+00,
357,-1.093750e+00,
358,-1.109375e+00,
359,-1.093750e+00,
360,-1.109375e+00,
361,-1.093750e+00,
362,-1.109375e+00,
363,-1.093750e+00,
364,-1.093750e+00,
365,-1.093750e+00,
366,-1.109375e+00,
367,-1.109375e+00,
368,-1.093750e+00,
369,-1.109375e+00,
370,-1.109375e+00,
371,-1.093750e+00,
372,-1.093750e+00,
373,-1.093750e+00,
374,-1.109375e+00,
375,-1.093750e+00,
376,-1.093750e+00,
377,-1.109375e+00,
378,-1.109375e+00,
379,-1.109375e+00,
380,-1.109375e+00,
381,-1.093750e+00,
382,-1.109375e+00,
383,-1.109375e+00,
384,-1.109375e+00,
385,-1.093750e+00,
386,-1.109375e+00,
387,-1.109375e+00,
388,-1.109375e+00,
389,-1.109375e+00,
390,-1.109375e+00,
391,-1.109375e+00,
392,-1.125000e+00,
393,-1.109375e+00,
394,-1.125000e+00,
395,-1.125000e+00,
396,-1.109375e+00,
397,-1.109375e+00,
398,-1.109375e+00,
399,-1.109375e+00,
400,-1.109375e+00,
401,-1.109375e+00,
402,-1.125000e+00,
403,-1.109375e+00,
404,-1.109375e+00,
405,-1.109375e+00,
406,-1.109375e+00,
407,-1.109375e+00,
408,-1.109375e+00,
409,-1.109375e+00,
410,-1.109375e+00,
411,-1.109375e+00,
412,-1.125000e+00,
413,-1.109375e+00,
414,-1.109375e+00,
415,-1.109375e+00,
416,-1.109375e+00,
417,-1.109375e+00,
418,-1.125000e+00,
419,-1.109375e+00,
420,-1.109375e+00,
421,-1.109375e+00,
422,-1.109375e+00,
423,-1.109375e+00,
424,-1.125000e+00,
425,-1.109375e+00,
426,-1.125000e+00,
427,-1.109375e+00,
428,-1.109375e+00,
429,-1.109375e+00,
430,-1.125000e+00,
431,-1.125000e+00,
432,-1.125000e+00,
433,-1.109375e+00,
434,-1.109375e+00,
435,-1.109375e+00,
436,-1.109375e+00,
437,-1.109375e+00,
438,-1.125000e+00,
439,-1.109375e+00,
440,-1.125000e+00,
441,-1.125000e+00,
442,-1.109375e+00,
443,-1.109375e+00,
444,-1.109375e+00,
445,-1.125000e+00,
446,-1.125000e+00,
447,-1.109375e+00,
448,-1.109375e+00,
449,-1.109375e+00,
450,-1.125000e+00,
451,-1.125000e+00,
452,-1.125000e+00,
453,-1.125000e+00,
454,-1.125000e+00,
455,-1.125000e+00,
456,-1.125000e+00,
457,-1.125000e+00,
458,-1.125000e+00,
459,-1.125000e+00,
460,-1.109375e+00,
461,-1.125000e+00,
462,-1.140625e+00,
463,-1.109375e+00,
464,-1.125000e+00,
465,-1.125000e+00,
466,-1.140625e+00,
467,-1.125000e+00,
468,-1.125000e+00,
469,-1.125000e+00,
470,-1.140625e+00,
471,-1.125000e+00,
472,-1.125000e+00,
473,-1.109375e+00,
474,-1.125000e+00,
475,-1.109375e+00,
476,-1.125000e+00,
477,-1.125000e+00,
478,-1.125000e+00,
479,-1.109375e+00,
480,-1.109375e+00,
481,-1.109375e+00,
482,-1.125000e+00,
483,-1.125000e+00,
484,-1.125000e+00,
485,-1.125000e+00,
486,-1.125000e+00,
487,-1.125000e+00,
488,-1.125000e+00,
489,-1.125000e+00,
490,-1.125000e+00,
491,-1.125000e+00,
492,-1.125000e+00,
493,-1.109375e+00,
494,-1.125000e+00,
495,-1.125000e+00,
496,-1.125000e+00,
497,-1.125000e+00,
498,-1.140625e+00,
499,-1.125000e+00,
500,-1.125000e+00,
501,-1.125000e+00,
502,-1.125000e+00,
503,-1.125000e+00,
504,-1.125000e+00,
505,-1.125000e+00,
506,-1.125000e+00,
507,-1.125000e+00,
508,-1.125000e+00,
509,-1.109375e+00,
510,-1.140625e+00,
511,-1.125000e+00,
512,-1.140625e+00,
513,-1.125000e+00,
514,-1.140625e+00,
515,-1.125000e+00,
516,-1.125000e+00,
517,-1.125000e+00,
518,-1.125000e+00,
519,-1.125000e+00,
520,-1.125000e+00,
521,-1.140625e+00,
522,-1.140625e+00,
523,-1.125000e+00,
524,-1.125000e+00,
525,-1.125000e+00,
526,-1.140625e+00,
527,-1.125000e+00,
528,-1.125000e+00,
529,-1.109375e+00,
530,-1.125000e+00,
531,-1.125000e+00,
532,-1.125000e+00,
533,-1.125000e+00,
534,-1.140625e+00,
535,-1.125000e+00,
536,-1.125000e+00,
537,-1.125000e+00,
538,-1.125000e+00,
539,-1.125000e+00,
540,-1.125000e+00,
541,-1.125000e+00,
542,-1.140625e+00,
543,-1.125000e+00,
544,-1.125000e+00,
545,-1.125000e+00,
546,-1.125000e+00,
547,-1.109375e+00,
548,-1.125000e+00,
549,-1.125000e+00,
550,-1.140625e+00,
551,-1.125000e+00,
552,-1.125000e+00,
553,-1.125000e+00,
554,-1.140625e+00,
555,-1.125000e+00,
556,-1.125000e+00,
557,-1.125000e+00,
558,-1.140625e+00,
559,-1.125000e+00,
560,-1.125000e+00,
561,-1.125000e+00,
562,-1.125000e+00,
563,-1.125000e+00,
564,-1.125000e+00,
565,-1.125000e+00,
566,-1.125000e+00,
567,-1.125000e+00,
568,-1.125000e+00,
569,-1.125000e+00,
570,-1.125000e+00,
571,-1.125000e+00,
572,-1.125000e+00,
573,-1.109375e+00,
574,-1.125000e+00,
575,-1.109375e+00,
576,-1.125000e+00,
577,-1.109375e+00,
578,-1.140625e+00,
579,-1.125000e+00,
580,-1.140625e+00,
581,-1.125000e+00,
582,-1.125000e+00,
583,-1.125000e+00,
584,-1.125000e+00,
585,-1.125000e+00,
586,-1.125000e+00,
587,-1.109375e+00,
588,-1.125000e+00,
589,-1.125000e+00,
590,-1.125000e+00,
591,-1.125000e+00,
592,-1.125000e+00,
593,-1.125000e+00,
594,-1.125000e+00,
595,-1.125000e+00,
596,-1.125000e+00,
597,-1.125000e+00,
598,-1.125000e+00,
599,-1.109375e+00,
600,-1.125000e+00,
601,-1.109375e+00,
602,-1.125000e+00,
603,-1.125000e+00,
604,-1.125000e+00,
605,-1.109375e+00,
606,-1.125000e+00,
607,-1.125000e+00,
608,-1.125000e+00,
609,-1.125000e+00,
610,-1.125000e+00,
611,-1.125000e+00,
612,-1.125000e+00,
613,-1.125000e+00,
614,-1.125000e+00,
615,-1.125000e+00,
616,-1.125000e+00,
617,-1.125000e+00,
618,-1.125000e+00,
619,-1.125000e+00,
620,-1.125000e+00,
621,-1.109375e+00,
622,-1.140625e+00,
623,-1.125000e+00,
624,-1.125000e+00,
625,-1.125000e+00,
626,-1.125000e+00,
627,-1.125000e+00,
628,-1.125000e+00,
629,-1.125000e+00,
630,-1.125000e+00,
631,-1.125000e+00,
632,-1.125000e+00,
633,-1.109375e+00,
634,-1.125000e+00,
635,-1.125000e+00,
636,-1.125000e+00,
637,-1.125000e+00,
638,-1.125000e+00,
639,-1.109375e+00,
640,-1.125000e+00,
641,-1.125000e+00,
642,-1.125000e+00,
643,-1.109375e+00,
644,-1.125000e+00,
645,-1.109375e+00,
646,-1.125000e+00,
647,-1.125000e+00,
648,-1.125000e+00,
649,-1.109375e+00,
650,-1.109375e+00,
651,-1.125000e+00,
652,-1.125000e+00,
653,-1.125000e+00,
654,-1.125000e+00,
655,-1.125000e+00,
656,-1.125000e+00,
657,-1.125000e+00,
658,-1.125000e+00,
659,-1.125000e+00,
660,-1.125000e+00,
661,-1.125000e+00,
662,-1.125000e+00,
663,-1.125000e+00,
664,-1.125000e+00,
665,-1.109375e+00,
666,-1.125000e+00,
667,-1.109375e+00,
668,-1.109375e+00,
669,-1.109375e+00,
670,-1.125000e+00,
671,-1.125000e+00,
672,-1.109375e+00,
673,-1.109375e+00,
674,-1.125000e+00,
675,-1.109375e+00,
676,-1.125000e+00,
677,-1.109375e+00,
678,-1.109375e+00,
679,-1.109375e+00,
680,-1.109375e+00,
681,-1.109375e+00,
682,-1.125000e+00,
683,-1.109375e+00,
684,-1.109375e+00,
685,-1.109375e+00,
686,-1.109375e+00,
687,-1.109375e+00,
688,-1.125000e+00,
689,-1.109375e+00,
690,-1.109375e+00,
691,-1.109375e+00,
692,-1.109375e+00,
693,-1.109375e+00,
694,-1.125000e+00,
695,-1.109375e+00,
696,-1.109375e+00,
697,-1.109375e+00,
698,-1.125000e+00,
699,-1.109375e+00,
700,-1.109375e+00,
701,-1.109375e+00,
702,-1.109375e+00,
703,-1.109375e+00,
704,-1.125000e+00,
705,-1.109375e+00,
706,-1.109375e+00,
707,-1.093750e+00,
708,-1.109375e+00,
709,-1.109375e+00,
710,-1.109375e+00,
711,-1.109375e+00,
712,-1.109375e+00,
713,-1.109375e+00,
714,-1.109375e+00,
715,-1.109375e+00,
716,-1.109375e+00,
717,-1.109375e+00,
718,-1.109375e+00,
719,-1.109375e+00,
720,-1.109375e+00,
721,-1.093750e+00,
722,-1.109375e+00,
723,-1.109375e+00,
724,-1.109375e+00,
725,-1.109375e+00,
726,-1.109375e+00,
727,-1.109375e+00,
728,-1.109375e+00,
729,-1.109375e+00,
730,-1.109375e+00,
731,-1.093750e+00,
732,-1.109375e+00,
733,-1.093750e+00,
734,-1.109375e+00,
735,-1.093750e+00,
736,-1.109375e+00,
737,-1.109375e+00,
738,-1.109375e+00,
739,-1.093750e+00,
740,-1.093750e+00,
741,-1.093750e+00,
742,-1.093750e+00,
743,-1.093750e+00,
744,-1.093750e+00,
745,-1.093750e+00,
746,-1.109375e+00,
747,-1.109375e+00,
748,-1.093750e+00,
749,-1.093750e+00,
750,-1.109375e+00,
751,-1.093750e+00,
752,-1.093750e+00,
753,-1.093750e+00,
754,-1.093750e+00,
755,-1.093750e+00,
756,-1.093750e+00,
757,-1.093750e+00,
758,-1.109375e+00,
759,-1.093750e+00,
760,-1.109375e+00,
761,-1.093750e+00,
762,-1.093750e+00,
763,-1.093750e+00,
764,-1.093750e+00,
765,-1.093750e+00,
766,-1.093750e+00,
767,-1.093750e+00,
768,-1.093750e+00,
769,-1.093750e+00,
770,-1.109375e+00,
771,-1.093750e+00,
772,-1.093750e+00,
773,-1.093750e+00,
774,-1.093750e+00,
775,-1.078125e+00,
776,-1.093750e+00,
777,-1.078125e+00,
778,-1.093750e+00,
779,-1.093750e+00,
780,-1.093750e+00,
781,-1.078125e+00,
782,-1.093750e+00,
783,-1.093750e+00,
784,-1.093750e+00,
785,-1.078125e+00,
786,-1.093750e+00,
787,-1.093750e+00,
788,-1.093750e+00,
789,-1.078125e+00,
790,-1.078125e+00,
791,-1.093750e+00,
792,-1.093750e+00,
793,-1.093750e+00,
794,-1.093750e+00,
795,-1.078125e+00,
796,-1.078125e+00,
797,-1.078125e+00,
798,-1.093750e+00,
799,-1.078125e+00,
800,-1.078125e+00,
801,-1.078125e+00,
802,-1.093750e+00,
803,-1.078125e+00,
804,-1.078125e+00,
805,-1.078125e+00,
806,-1.093750e+00,
807,-1.078125e+00,
808,-1.078125e+00,
809,-1.078125e+00,
810,-1.078125e+00,
811,-1.093750e+00,
812,-1.078125e+00,
813,-1.078125e+00,
814,-1.078125e+00,
815,-1.078125e+00,
816,-1.078125e+00,
817,-1.078125e+00,
818,-1.078125e+00,
819,-1.078125e+00,
820,-1.078125e+00,
821,-1.078125e+00,
822,-1.093750e+00,
823,-1.078125e+00,
824,-1.078125e+00,
825,-1.078125e+00,
826,-1.093750e+00,
827,-1.078125e+00,
828,-1.078125e+00,
829,-1.078125e+00,
830,-1.078125e+00,
831,-1.078125e+00,
832,-1.078125e+00,
833,-1.062500e+00,
834,-1.078125e+00,
835,-1.078125e+00,
836,-1.078125e+00,
837,-1.078125e+00,
838,-1.078125e+00,
839,-1.078125e+00,
840,-1.078125e+00,
841,-1.078125e+00,
842,-1.093750e+00,
843,-1.078125e+00,
844,-1.078125e+00,
845,-1.078125e+00,
846,-1.078125e+00,
847,-1.078125e+00,
848,-1.062500e+00,
849,-1.078125e+00,
850,-1.078125e+00,
851,-1.078125e+00,
852,-1.062500e+00,
853,-1.062500e+00,
854,-1.062500e+00,
855,-1.078125e+00,
856,-1.078125e+00,
857,-1.062500e+00,
858,-1.062500e+00,
859,-1.062500e+00,
860,-1.062500e+00,
861,-1.062500e+00,
862,-1.046875e+00,
863,-1.062500e+00,
864,-1.062500e+00,
865,-1.062500e+00,
866,-1.078125e+00,
867,-1.062500e+00,
868,-1.062500e+00,
869,-1.062500e+00,
870,-1.062500e+00,
871,-1.046875e+00,
872,-1.062500e+00,
873,-1.046875e+00,
874,-1.046875e+00,
875,-1.046875e+00,
876,-1.046875e+00,
877,-1.046875e+00,
878,-1.062500e+00,
879,-1.062500e+00,
880,-1.062500e+00,
881,-1.046875e+00,
882,-1.062500e+00,
883,-1.046875e+00,
884,-1.046875e+00,
885,-1.046875e+00,
886,-1.062500e+00,
887,-1.062500e+00,
888,-1.046875e+00,
889,-1.062500e+00,
890,-1.062500e+00,
891,-1.046875e+00,
892,-1.062500e+00,
893,-1.046875e+00,
894,-1.046875e+00,
895,-1.046875e+00,
896,-1.046875e+00,
897,-1.046875e+00,
898,-1.062500e+00,
899,-1.046875e+00,
900,-1.046875e+00,
901,-1.046875e+00,
902,-1.046875e+00,
903,-1.046875e+00,
904,-1.062500e+00,
905,-1.046875e+00,
906,-1.046875e+00,
907,-1.046875e+00,
908,-1.046875e+00,
909,-1.046875e+00,
910,-1.046875e+00,
911,-1.046875e+00,
912,-1.046875e+00,
913,-1.031250e+00,
914,-1.046875e+00,
915,-1.046875e+00,
916,-1.046875e+00,
917,-1.046875e+00,
918,-1.046875e+00,
919,-1.046875e+00,
920,-1.046875e+00,
921,-1.046875e+00,
922,-1.046875e+00,
923,-1.031250e+00,
924,-1.046875e+00,
925,-1.031250e+00,
926,-1.046875e+00,
927,-1.046875e+00,
928,-1.031250e+00,
929,-1.031250e+00,
930,-1.031250e+00,
931,-1.031250e+00,
932,-1.031250e+00,
933,-1.031250e+00,
934,-1.046875e+00,
935,-1.031250e+00,
936,-1.031250e+00,
937,-1.031250e+00,
938,-1.046875e+00,
939,-1.031250e+00,
940,-1.031250e+00,
941,-1.031250e+00,
942,-1.046875e+00,
943,-1.031250e+00,
944,-1.031250e+00,
945,-1.015625e+00,
946,-1.031250e+00,
947,-1.031250e+00,
948,-1.031250e+00,
949,-1.015625e+00,
950,-1.031250e+00,
951,-1.031250e+00,
952,-1.031250e+00,
953,-1.031250e+00,
954,-1.031250e+00,
955,-1.031250e+00,
956,-1.031250e+00,
957,-1.015625e+00,
958,-1.031250e+00,
959,-1.015625e+00,
960,-1.015625e+00,
961,-1.015625e+00,
962,-1.031250e+00,
963,-1.031250e+00,
964,-1.031250e+00,
965,-1.015625e+00,
966,-1.031250e+00,
967,-1.015625e+00,
968,-1.015625e+00,
969,-1.015625e+00,
970,-1.015625e+00,
971,-1.015625e+00,
972,-1.015625e+00,
973,-1.000000e+00,
974,-1.015625e+00,
975,-1.015625e+00,
976,-1.015625e+00,
977,-1.015625e+00,
978,-1.015625e+00,
979,-1.015625e+00,
980,-1.015625e+00,
981,-1.000000e+00,
982,-1.015625e+00,
983,-1.015625e+00,
984,-1.015625e+00,
985,-1.000000e+00,
986,-1.015625e+00,
987,-1.015625e+00,
988,-1.015625e+00,
989,-1.000000e+00,
990,-1.015625e+00,
991,-1.015625e+00,
992,-1.000000e+00,
993,-1.000000e+00,
994,-1.015625e+00,
995,-1.000000e+00,
996,-1.000000e+00,
997,-1.000000e+00,
998,-1.015625e+00,
999,-1.000000e+00,
1000,-1.000000e+00,
1001,-9.843750e-01,
1002,-1.015625e+00,
1003,-1.000000e+00,
1004,-1.000000e+00,
1005,-1.000000e+00,
1006,-1.015625e+00,
1007,-1.000000e+00,
1008,-1.000000e+00,
1009,-9.843750e-01,
1010,-9.843750e-01,
1011,-9.843750e-01,
1012,-1.000000e+00,
1013,-1.000000e+00,
1014,-1.000000e+00,
1015,-9.843750e-01,
1016,-9.843750e-01,
1017,-9.843750e-01,
1018,-1.000000e+00,
1019,-9.843750e-01,
1020,-1.000000e+00,
1021,-9.843750e-01,
1022,-9.843750e-01,
1023,-9.843750e-01,
1024,-1.000000e+00,
1025,-9.843750e-01,
1026,-1.000000e+00,
1027,-9.843750e-01,
1028,-9.843750e-01,
1029,-9.843750e-01,
1030,-1.000000e+00,
1031,-9.843750e-01,
1032,-9.843750e-01,
1033,-9.843750e-01,
1034,-1.000000e+00,
1035,-9.843750e-01,
1036,-9.843750e-01,
1037,-9.843750e-01,
1038,-9.843750e-01,
1039,-9.687500e-01,
1040,-9.843750e-01,
1041,-9.843750e-01,
1042,-9.843750e-01,
1043,-9.843750e-01,
1044,-9.843750e-01,
1045,-9.843750e-01,
1046,-1.000000e+00,
1047,-9.687500e-01,
1048,-9.687500e-01,
1049,-9.687500e-01,
1050,-9.843750e-01,
1051,-9.687500e-01,
